…
#### What is the total sales for each city, for each month, for each year?

``` r
sales |> 
  group_by(city, year = year(orddate), month = month(orddate, label = TRUE)) |> 
  summarise(total = sum(linetotal)) |> 
  pivot_wider(names_from = year, values_from = total)
```

    ## `summarise()` has grouped output by 'city', 'year'. You can override using the
    ## `.groups` argument.

    ## # A tibble: 71 × 5
    ## # Groups:   city [6]
    ##    city      month `2020` `2021` `2022`
    ##    <chr>     <ord>  <dbl>  <dbl>  <dbl>
    ##  1 Eindhoven Jan    3679.  1232.   794.
    ##  2 Eindhoven Feb    1760.  1356.   124.
    ##  3 Eindhoven Mar    5040.   580    656.
    ##  4 Eindhoven Apr     354.   928.   441.
    ##  5 Eindhoven May    1506.   446   1445 
    ##  6 Eindhoven Jun      75    895.    NA 
    ##  7 Eindhoven Jul    1232.  1683.  1219.
    ##  8 Eindhoven Aug     755.    66   2233.
    ##  9 Eindhoven Sep    1113.  1336.  1416.
    ## 10 Eindhoven Oct    3094.  1102.   314.
    ## # ℹ 61 more rows
Note the warning: `group_by()` creates a persistent grouping context. By
default `summarise()` peels off only the last element of the grouping
context. We can override this using the `.groups` parameter. It is
considered good style to be explicit and use the .`groups` parameter in
`summarise()` Here we want to get rid of the complete grouping context
and, hence, use `.groups = "drop`.

``` r
sales |> 
  group_by(city, year = year(orddate), month = month(orddate, label = TRUE)) |> 
  summarise(total = sum(linetotal), .groups = "drop") |> 
  pivot_wider(names_from = year, values_from = total)
```

    ## # A tibble: 71 × 5
    ##    city      month `2020` `2021` `2022`
    ##    <chr>     <ord>  <dbl>  <dbl>  <dbl>
    ##  1 Eindhoven Jan    3679.  1232.   794.
    ##  2 Eindhoven Feb    1760.  1356.   124.
    ##  3 Eindhoven Mar    5040.   580    656.
    ##  4 Eindhoven Apr     354.   928.   441.
    ##  5 Eindhoven May    1506.   446   1445 
    ##  6 Eindhoven Jun      75    895.    NA 
    ##  7 Eindhoven Jul    1232.  1683.  1219.
    ##  8 Eindhoven Aug     755.    66   2233.
    ##  9 Eindhoven Sep    1113.  1336.  1416.
    ## 10 Eindhoven Oct    3094.  1102.   314.
    ## # ℹ 61 more rows

What if we want proportional instead of absolute sales figures?

``` r
sales |> 
  group_by(city, year = year(orddate), month = month(orddate, label = TRUE)) |> 
  summarise(total = sum(linetotal), .groups = "drop_last") |>
  mutate(total = total/sum(total)) |> 
  pivot_wider(names_from = year, values_from = total)
```

    ## # A tibble: 71 × 5
    ## # Groups:   city [6]
    ##    city      month  `2020`  `2021`  `2022`
    ##    <chr>     <ord>   <dbl>   <dbl>   <dbl>
    ##  1 Eindhoven Jan   0.186   0.0983   0.0771
    ##  2 Eindhoven Feb   0.0891  0.108    0.0121
    ##  3 Eindhoven Mar   0.255   0.0463   0.0636
    ##  4 Eindhoven Apr   0.0179  0.0741   0.0428
    ##  5 Eindhoven May   0.0762  0.0356   0.140 
    ##  6 Eindhoven Jun   0.00380 0.0714  NA     
    ##  7 Eindhoven Jul   0.0624  0.134    0.118 
    ##  8 Eindhoven Aug   0.0382  0.00527  0.217 
    ##  9 Eindhoven Sep   0.0563  0.107    0.137 
    ## 10 Eindhoven Oct   0.157   0.0879   0.0304
    ## # ℹ 61 more rows
…
So, if you use persistent grouping, using `group_by()`, the order of
variables in the grouping context is critical.

``` r
sales |> 
  group_by(year = year(orddate), month = month(orddate, label = TRUE), city) |> 
  summarise(total = sum(linetotal), .groups = "drop_last") |>
  mutate(total = total/sum(total)) |> 
  pivot_wider(names_from = year, values_from = total)
```

    ## # A tibble: 71 × 5
    ## # Groups:   month [12]
    ##    month city      `2020` `2021`  `2022`
    ##    <ord> <chr>      <dbl>  <dbl>   <dbl>
    ##  1 Jan   Eindhoven 0.559   0.348  0.394 
    ##  2 Jan   Helmond   0.233   0.197  0.0799
    ##  3 Jan   Laarbeek  0.0273 NA      0.413 
    ##  4 Jan   Veghel    0.181   0.264  0.113 
    ##  5 Feb   Eindhoven 0.354   0.444  0.0740
    ##  6 Feb   Erp       0.135   0.126  0.264 
    ##  7 Feb   Helmond   0.258  NA     NA     
    ##  8 Feb   Veghel    0.253  NA      0.165 
    ##  9 Mar   Eindhoven 0.550   0.356  0.289 
    ## 10 Mar   Erp       0.168  NA     NA     
    ## # ℹ 61 more rows

If the persistent grouping list is confusing, you can switch to
per-operation grouping:

``` r
sales |> 
  mutate(year = year(orddate), month = month(orddate, label = TRUE)) |> 
  summarise(total = sum(linetotal), .by = c(year, month, city)) |>
  mutate(total = total/sum(total), .by = c(year, month)) |> 
  pivot_wider(names_from = year, values_from = total)
```

    ## # A tibble: 71 × 5
    ##    month city      `2020` `2021`  `2022`
    ##    <ord> <chr>      <dbl>  <dbl>   <dbl>
    ##  1 Jan   Veghel    0.181   0.264  0.113 
    ##  2 Jan   Eindhoven 0.559   0.348  0.394 
    ##  3 Jan   Helmond   0.233   0.197  0.0799
    ##  4 Jan   Laarbeek  0.0273 NA      0.413 
    ##  5 Feb   Veghel    0.253  NA      0.165 
    ##  6 Feb   Erp       0.135   0.126  0.264 
    ##  7 Feb   Eindhoven 0.354   0.444  0.0740
    ##  8 Feb   Helmond   0.258  NA     NA     
    ##  9 Mar   Eindhoven 0.550   0.356  0.289 
    ## 10 Mar   Veghel    0.199   0.397 NA     
    ## # ℹ 61 more rows
…
``` r
sales |> 
  group_by(
    yr = isoyear(orddate),
    wk = isoweek(orddate),
    wday = wday(orddate, label = TRUE, week_start = 1)
  ) |> 
  summarise(tot = sum(linetotal), .groups = "drop_last") |> 
  filter(rank(desc(tot)) == 1) |> 
  ungroup() |> 
  count(yr, wday)
```

    ## # A tibble: 21 × 3
    ##       yr wday      n
    ##    <dbl> <ord> <int>
    ##  1  2020 Mon       9
    ##  2  2020 Tue       9
    ##  3  2020 Wed       5
    ##  4  2020 Thu       8
    ##  5  2020 Fri       3
    ##  6  2020 Sat       8
    ##  7  2020 Sun       7
    ##  8  2021 Mon       4
    ##  9  2021 Tue       7
    ## 10  2021 Wed      11
    ## # ℹ 11 more rows
…
